[
  {
    "journalTitle": "AAPG Bulletin",
    "pissn": "0149-1423",
    "eissn": "558-9153"
  },
  {
    "journalTitle": "Geology",
    "pissn": "0091-7613",
    "eissn": "1943-2682"
  },
  {
    "journalTitle": "GSA Bulletin",
    "pissn": "0016-7606",
    "eissn": "1943-2674"
  },
  {
    "journalTitle": "Journal of the Geological Society",
    "pissn": "0016-7649",
    "eissn": "2041-479X"
  },
  {
    "journalTitle": "Quarterly Journal of Engineering Geology and Hydrogeology",
    "pissn": "1470-9236",
    "eissn": "2041-4803"
  },
  {
    "journalTitle": "American Mineralogist",
    "pissn": "0003-004X",
    "eissn": "1945-3027"
  },
  {
    "journalTitle": "Geophysics",
    "pissn": "0016-8033",
    "eissn": "1942-2156"
  },
  {
    "journalTitle": "Interpretation",
    "pissn": "2324-8858",
    "eissn": "2324-8866"
  },
  {
    "journalTitle": "The Leading Edge",
    "pissn": "1070-485X",
    "eissn": "1938-3789"
  },
  {
    "journalTitle": "Economic Geology",
    "pissn": "0361-0128",
    "eissn": "1554-0774"
  },
  {
    "journalTitle": "Journal of Sedimentary Research",
    "pissn": "1527-1404",
    "eissn": "1938-3681"
  },
  {
    "journalTitle": "PALAIOS",
    "pissn": "0883-1351",
    "eissn": "1938-5323"
  },
  {
    "journalTitle": "Special Publications GSL",
    "pissn": "0305-8719",
    "eissn": "2041-4927"
  },
  {
    "journalTitle": "Engineering Geology Special Publications",
    "pissn": "0267-9914",
    "eissn": "2041-4730"
  },
  {
    "journalTitle": "Memoirs GSL",
    "pissn": "0435-4052",
    "eissn": "2041-4722"
  },
  {
    "journalTitle": "The Sedimentary Record",
    "pissn": "1543-8740",
    "eissn": ""
  },
  {
    "journalTitle": "Geosphere",
    "pissn": "",
    "eissn": "1553-040X"
  }
]
